Work with Open Road Traffic Casualty Data from Great Britain • rOpenSci: stats19
…
The contents of each is outlined below.

Crash data

Crash data was downloaded and read-in using the function get_stats19(), as described above.

nrow(crashes)
#> [1] 129982
ncol(crashes)
#> [1] 33

Some of the key variables in this dataset include:

crashes[c(7, 18, 23, 25)]
#> # A tibble: 129,982 x 4
#>    accident_severity speed_limit pedestrian_crossing_human_… light_conditions   
#>    <chr>                   <int> <chr>                       <chr>              
#>  1 Fatal                      30 None within 50 metres       Darkness - lights …
#>  2 Slight                     30 None within 50 metres       Darkness - lights …
#>  3 Slight                     30 None within 50 metres       Darkness - lights …
#>  4 Slight                     30 None within 50 metres       Darkness - lights …
#>  5 Serious                    20 None within 50 metres       Darkness - lights …
#>  6 Slight                     30 None within 50 metres       Darkness - lights …
#>  7 Slight                     40 None within 50 metres       Darkness - lights …
#>  8 Slight                     30 Control by other authorise… Darkness - lights …
#>  9 Serious                    50 None within 50 metres       Darkness - lights …
#> 10 Serious                    30 None within 50 metres       Darkness - lights …
#> # … with 129,972 more rows
…
casualties = get_stats19(year = 2017, type = "casualties", ask = FALSE)
#> Files identified: dftRoadSafetyData_Casualties_2017.zip
#>    http://data.dft.gov.uk.s3.amazonaws.com/road-accidents-safety-data/dftRoadSafetyData_Casualties_2017.zip
#> Data already exists in data_dir, not downloading
#> Data saved at ~/stats19-data/dftRoadSafetyData_Casualties_2017/Cas.csv
nrow(casualties)
#> [1] 170993
ncol(casualties)
#> [1] 16

The results show that there were 170,993 casualties reported by the police in the STATS19 dataset in 2017, and 16 columns (variables). Values for a sample of these columns are shown below:

casualties[c(4, 5, 6, 14)]
#> # A tibble: 170,993 x 4
#>    casualty_class  sex_of_casualty age_of_casualty casualty_type                
#>    <chr>           <chr>                     <int> <chr>                        
#>  1 Passenger       Female                       18 Car occupant                 
#>  2 Driver or rider Male                         19 Motorcycle 50cc and under ri…
#>  3 Passenger       Male                         18 Motorcycle 50cc and under ri…
#>  4 Passenger       Female                       33 Car occupant                 
#>  5 Driver or rider Female                       31 Car occupant                 
#>  6 Passenger       Male                          3 Car occupant                 
#>  7 Pedestrian      Male                         45 Pedestrian                   
#>  8 Driver or rider Male                         14 Motorcycle 125cc and under r…
#>  9 Driver or rider Female                       58 Car occupant                 
#> 10 Driver or rider Male                         27 Car occupant                 
#> # … with 170,983 more rows
…
vehicles = get_stats19(year = 2017, type = "vehicles", ask = FALSE)
#> Files identified: dftRoadSafetyData_Vehicles_2017.zip
#>    http://data.dft.gov.uk.s3.amazonaws.com/road-accidents-safety-data/dftRoadSafetyData_Vehicles_2017.zip
#> Data already exists in data_dir, not downloading
#> Data saved at ~/stats19-data/dftRoadSafetyData_Vehicles_2017/Veh.csv
nrow(vehicles)
#> [1] 238926
ncol(vehicles)
#> [1] 23

The results show that there were 238,926 vehicles involved in crashes reported by the police in the STATS19 dataset in 2017, with 23 columns (variables). Values for a sample of these columns are shown below:

vehicles[c(3, 14:16)]
#> # A tibble: 238,926 x 4
#>    vehicle_type             journey_purpose_of_driv… sex_of_driver age_of_driver
#>    <chr>                    <chr>                    <chr>                 <int>
#>  1 Car                      Not known                Male                     24
#>  2 Motorcycle 50cc and und… Not known                Male                     19
#>  3 Car                      Not known                Male                     33
#>  4 Car                      Not known                Male                     40
#>  5 Car                      Not known                Not known                -1
#>  6 Car                      Not known                Male                     35
#>  7 Car                      Not known                Female                   31
#>  8 Car                      Not known                Female                   37
#>  9 Car                      Not known                Female                   29
#> 10 Car                      Not known                Male                     78
#> # … with 238,916 more rows
…
