Download, read and format STATS19 data in one function. — get_stats19 • rOpenSci: stats19
…
# data.frame output
x = get_stats19(2019, silent = TRUE, output_format = "data.frame")

#> date and time columns present, creating formatted datetime column
class(x)

#> [1] "data.frame"

# multiple years
get_stats19(c(2017, 2018), silent = TRUE)

#> date and time columns present, creating formatted datetime column
#> date and time columns present, creating formatted datetime column
#> # A tibble: 252,617 x 33
#>    accident_index location_easting_osgr location_northing_os… longitude latitude
#>    <chr>                          <int>                 <int>     <dbl>    <dbl>
#>  1 2017010001708                 532920                196330   -0.0801     51.7
#>  2 2017010009342                 526790                181970   -0.174      51.5
#>  3 2017010009344                 535200                181260   -0.0530     51.5
#>  4 2017010009348                 534340                193560   -0.0607     51.6
#>  5 2017010009350                 533680                187820   -0.0724     51.6
#>  6 2017010009351                 514510                172370   -0.354      51.4
#>  7 2017010009353                 508640                181870   -0.435      51.5
#>  8 2017010009354                 527880                181950   -0.158      51.5
#>  9 2017010009357                 520940                192820   -0.254      51.6
#> 10 2017010009358                 531430                178450   -0.108      51.5
#> # … with 252,607 more rows, and 28 more variables: police_force <chr>,
#> #   accident_severity <chr>, number_of_vehicles <int>,
#> #   number_of_casualties <int>, date <date>, day_of_week <chr>, time <chr>,
#> #   local_authority_district <chr>, local_authority_highway <chr>,
#> #   first_road_class <chr>, first_road_number <int>, road_type <chr>,
#> #   speed_limit <int>, junction_detail <chr>, junction_control <chr>,
#> #   second_road_class <chr>, second_road_number <int>,
#> #   pedestrian_crossing_human_control <chr>,
#> #   pedestrian_crossing_physical_facilities <chr>, light_conditions <chr>,
…
# multiple years
get_stats19(c(2017, 2018), silent = TRUE, output_format = "sf")

#> date and time columns present, creating formatted datetime column
#> 19 rows removed with no coordinates
#> date and time columns present, creating formatted datetime column
#> 55 rows removed with no coordinates
#> Simple feature collection with 252543 features and 31 fields
#> Geometry type: POINT
#> Dimension:     XY
#> Bounding box:  xmin: 73639 ymin: 10235 xmax: 655391 ymax: 1209512
#> Projected CRS: OSGB 1936 / British National Grid
#> # A tibble: 252,543 x 32
#>    accident_index longitude latitude police_force        accident_severity
#>  * <chr>              <dbl>    <dbl> <chr>               <chr>            
#>  1 2017010001708    -0.0801     51.7 Metropolitan Police Fatal            
#>  2 2017010009342    -0.174      51.5 Metropolitan Police Slight           
#>  3 2017010009344    -0.0530     51.5 Metropolitan Police Slight           
#>  4 2017010009348    -0.0607     51.6 Metropolitan Police Slight           
#>  5 2017010009350    -0.0724     51.6 Metropolitan Police Serious          
#>  6 2017010009351    -0.354      51.4 Metropolitan Police Slight           
#>  7 2017010009353    -0.435      51.5 Metropolitan Police Slight           
#>  8 2017010009354    -0.158      51.5 Metropolitan Police Slight           
#>  9 2017010009357    -0.254      51.6 Metropolitan Police Serious          
#> 10 2017010009358    -0.108      51.5 Metropolitan Police Serious          
#> # … with 252,533 more rows, and 27 more variables: number_of_vehicles <int>,
#> #   number_of_casualties <int>, date <date>, day_of_week <chr>, time <chr>,
#> #   local_authority_district <chr>, local_authority_highway <chr>,
#> #   first_road_class <chr>, first_road_number <int>, road_type <chr>,
#> #   speed_limit <int>, junction_detail <chr>, junction_control <chr>,
#> #   second_road_class <chr>, second_road_number <int>,
#> #   pedestrian_crossing_human_control <chr>,
#> #   pedestrian_crossing_physical_facilities <chr>, light_conditions <chr>,
#> #   weather_conditions <chr>, road_surface_conditions <chr>,
…
