Introducing stats19 • rOpenSci: stats19
…
What just happened? We read-in data on all road crashes recorded by the police in 2017 across Great Britain. The dataset contains 32 columns (variables) for 129,982 crashes.

This work was done by read_accidents(format = FALSE), which imported the “raw” STATS19 data without cleaning messy column names or re-categorising the outputs. format_accidents() function automates the process of matching column names with variable names and labels in a .xls file provided by the DfT. This means crashes_2017 is much more usable than crashes_2017_raw, as shown below, which shows some key variables in the messy and clean datasets:

crashes_2017_raw[c(7, 18, 23, 25)]
#> # A tibble: 129,982 x 4
#>    Accident_Severity Speed_limit `Pedestrian_Crossing-Human_Co… Light_Conditions
#>                <int>       <int>                          <int>            <int>
#>  1                 1          30                              0                4
#>  2                 3          30                              0                4
#>  3                 3          30                              0                4
#>  4                 3          30                              0                4
#>  5                 2          20                              0                4
#>  6                 3          30                              0                4
#>  7                 3          40                              0                4
#>  8                 3          30                              2                4
#>  9                 2          50                              0                4
#> 10                 2          30                              0                4
#> # … with 129,972 more rows
crashes_2017[c(7, 18, 23, 25)]
#> # A tibble: 129,982 x 4
#>    accident_severity speed_limit pedestrian_crossing_human_… light_conditions   
#>    <chr>                   <int> <chr>                       <chr>              
#>  1 Fatal                      30 None within 50 metres       Darkness - lights …
#>  2 Slight                     30 None within 50 metres       Darkness - lights …
#>  3 Slight                     30 None within 50 metres       Darkness - lights …
#>  4 Slight                     30 None within 50 metres       Darkness - lights …
#>  5 Serious                    20 None within 50 metres       Darkness - lights …
#>  6 Slight                     30 None within 50 metres       Darkness - lights …
#>  7 Slight                     40 None within 50 metres       Darkness - lights …
#>  8 Slight                     30 Control by other authorise… Darkness - lights …
#>  9 Serious                    50 None within 50 metres       Darkness - lights …
#> 10 Serious                    30 None within 50 metres       Darkness - lights …
#> # … with 129,972 more rows

By default, format = TRUE, meaning that the two stages of read_accidents(format = FALSE) and format_accidents() yield the same result as read_accidents(format = TRUE). For the full list of columns, run names(crashes_2017).

Note: As indicated above, the term “accidents” is only used as directly provided by the DfT; “crashes” is a more appropriate term, hence we call our resultant datasets crashes_*.

Format STATS19 data

It is also possible to import the “raw” data as provided by the DfT. A .xls file provided by the DfT defines the column names for the datasets provided. The packaged datasets stats19_variables and stats19_schema provide summary information about the contents of this data guide. These contain the full variable names in the guide (stats19_variables) and a complete look up table relating integer values to the .csv files provided by the DfT and their labels (stats19_schema). The first rows of each dataset are shown below:

stats19_variables
#> # A tibble: 70 x 4
#>    table     variable                              type     column_name         
#>    <chr>     <chr>                                 <chr>    <chr>               
#>  1 accidents Accident Index                        other    accident_index      
#>  2 accidents Police Force                          charact… police_force        
#>  3 accidents Accident Severity                     charact… accident_severity   
#>  4 accidents Number of Vehicles                    numeric  number_of_vehicles  
#>  5 accidents Number of Casualties                  numeric  number_of_casualties
#>  6 accidents Date (DD/MM/YYYY)                     date     date                
#>  7 accidents Day of Week                           charact… day_of_week         
#>  8 accidents Time (HH:MM)                          time     time                
#>  9 accidents Location Easting OSGR (Null if not k… location location_easting_os…
#> 10 accidents Location Northing OSGR (Null if not … location location_northing_o…
#> # … with 60 more rows
stats19_schema
#> # A tibble: 980 x 4
#>    code  label               variable     variable_formatted
#>    <chr> <chr>               <chr>        <chr>             
#>  1 1     Metropolitan Police Police Force police_force      
#>  2 3     Cumbria             Police Force police_force      
#>  3 4     Lancashire          Police Force police_force      
#>  4 5     Merseyside          Police Force police_force      
#>  5 6     Greater Manchester  Police Force police_force      
#>  6 7     Cheshire            Police Force police_force      
#>  7 10    Northumbria         Police Force police_force      
#>  8 11    Durham              Police Force police_force      
#>  9 12    North Yorkshire     Police Force police_force      
#> 10 13    West Yorkshire      Police Force police_force      
#> # … with 970 more rows
…
dl_stats19(year = 2017, type = "casualties", ask = FALSE)
#> Files identified: dftRoadSafetyData_Casualties_2017.zip
#>    http://data.dft.gov.uk.s3.amazonaws.com/road-accidents-safety-data/dftRoadSafetyData_Casualties_2017.zip
#> Data already exists in data_dir, not downloading
#> Data saved at /tmp/RtmpqPcVSx/dftRoadSafetyData_Casualties_2017/Cas.csv
casualties_2017 = read_casualties(year = 2017)
nrow(casualties_2017)
#> [1] 170993
ncol(casualties_2017)
#> [1] 16

The results show that there were 170,993 casualties reported by the police in the STATS19 dataset in 2017, and 16 columns (variables). Values for a sample of these columns are shown below:

casualties_2017[c(4, 5, 6, 14)]
#> # A tibble: 170,993 x 4
#>    casualty_class  sex_of_casualty age_of_casualty casualty_type                
#>    <chr>           <chr>                     <int> <chr>                        
#>  1 Passenger       Female                       18 Car occupant                 
#>  2 Driver or rider Male                         19 Motorcycle 50cc and under ri…
#>  3 Passenger       Male                         18 Motorcycle 50cc and under ri…
#>  4 Passenger       Female                       33 Car occupant                 
#>  5 Driver or rider Female                       31 Car occupant                 
#>  6 Passenger       Male                          3 Car occupant                 
#>  7 Pedestrian      Male                         45 Pedestrian                   
#>  8 Driver or rider Male                         14 Motorcycle 125cc and under r…
#>  9 Driver or rider Female                       58 Car occupant                 
#> 10 Driver or rider Male                         27 Car occupant                 
#> # … with 170,983 more rows
…
dl_stats19(year = 2017, type = "vehicles", ask = FALSE)
#> Files identified: dftRoadSafetyData_Vehicles_2017.zip
#>    http://data.dft.gov.uk.s3.amazonaws.com/road-accidents-safety-data/dftRoadSafetyData_Vehicles_2017.zip
#> Data already exists in data_dir, not downloading
#> Data saved at /tmp/RtmpqPcVSx/dftRoadSafetyData_Vehicles_2017/Veh.csv
vehicles_2017 = read_vehicles(year = 2017)
nrow(vehicles_2017)
#> [1] 238926
ncol(vehicles_2017)
#> [1] 23

The results show that there were 238,926 vehicles involved in crashes reported by the police in the STATS19 dataset in 2017, with 23 columns (variables). Values for a sample of these columns are shown below:

vehicles_2017[c(3, 14:16)]
#> # A tibble: 238,926 x 4
#>    vehicle_type             journey_purpose_of_driv… sex_of_driver age_of_driver
#>    <chr>                    <chr>                    <chr>                 <int>
#>  1 Car                      Not known                Male                     24
#>  2 Motorcycle 50cc and und… Not known                Male                     19
#>  3 Car                      Not known                Male                     33
#>  4 Car                      Not known                Male                     40
#>  5 Car                      Not known                Not known                -1
#>  6 Car                      Not known                Male                     35
#>  7 Car                      Not known                Female                   31
#>  8 Car                      Not known                Female                   37
#>  9 Car                      Not known                Female                   29
#> 10 Car                      Not known                Male                     78
#> # … with 238,916 more rows
…
