Researching vehicles involved in collisions with STATS19 data • rOpenSci: stats19
…
library(stats19)
library(dplyr)

Vehicle level variables in the STATS19 datasets

Of the three dataset types in STATS19, the vehicle tables are perhaps the most revealing yet under-explored. They look like this:

v = get_stats19(year = 2018, type = "vehicles")
#> Files identified: dftRoadSafetyData_Vehicles_2018.csv
#>    http://data.dft.gov.uk.s3.amazonaws.com/road-accidents-safety-data/dftRoadSafetyData_Vehicles_2018.csv
#> Attempt downloading from:
#> Data saved at /tmp/RtmpLLMKz3/dftRoadSafetyData_Vehicles_2018.csv
v
#> # A tibble: 226,409 x 23
#>    accident_index vehicle_reference vehicle_type             towing_and_articul…
#>    <chr>                      <int> <chr>                    <chr>              
#>  1 2018010080971                  1 Car                      No tow/articulation
#>  2 2018010080971                  2 Taxi/Private hire car    No tow/articulation
#>  3 2018010080973                  1 Car                      No tow/articulation
#>  4 2018010080974                  1 Taxi/Private hire car    No tow/articulation
#>  5 2018010080974                  2 Car                      No tow/articulation
#>  6 2018010080981                  1 Car                      No tow/articulation
#>  7 2018010080981                  2 Van / Goods 3.5 tonnes … No tow/articulation
#>  8 2018010080982                  1 Taxi/Private hire car    No tow/articulation
#>  9 2018010080982                  2 Car                      No tow/articulation
#> 10 2018010080983                  1 Car                      No tow/articulation
#> # … with 226,399 more rows, and 19 more variables: vehicle_manoeuvre <chr>,
#> #   vehicle_location_restricted_lane <int>, junction_location <chr>,
#> #   skidding_and_overturning <chr>, hit_object_in_carriageway <int>,
#> #   vehicle_leaving_carriageway <int>, hit_object_off_carriageway <int>,
#> #   first_point_of_impact <chr>, was_vehicle_left_hand_drive <chr>,
#> #   journey_purpose_of_driver <chr>, sex_of_driver <chr>, age_of_driver <int>,
#> #   age_band_of_driver <int>, engine_capacity_cc <int>, propulsion_code <chr>,
#> #   age_of_vehicle <int>, driver_imd_decile <chr>, driver_home_area_type <int>,
#> #   vehicle_imd_decile <int>
…
